<?xml version='1.0' encoding='UTF-8'?>
<kml xmlns='http://www.opengis.net/kml/2.2'>
	<Document>
		<name>GOKS - atrakcje</name>
			<Placemark>
				<name>Dom narodzin Hitlera</name>
				<styleUrl>#icon</styleUrl>
				<description><![CDATA[Miejsce narodzin Hitlera]]></description>
				<styleUrl>#icon</styleUrl>
				<ExtendedData>
				</ExtendedData>
				<Point>
					<coordinates>13.035965000000033,48.256242,0.0</coordinates>
				</Point>
			</Placemark>
			<Placemark>
				<name>Hallstatt</name>
				<description><![CDATA[<img src="http://www.citypictures.org/data/media/192/Hallstatt_Austria.jpg" height="200" width="200" /><br><br>Hallstatt to nazwa zarówno jeziora, jak i miejscowości w Alpach Salzburskich, malowniczo położonej nad jego brzegami. Wraz z całym regionem Salzkammergut znajduje się na Liście Światowego Dziedzictwa UNESCO. Poza pięknymi widokami miasteczko ma do zaoferowania cmentarz z epoki żelaza (800 r. p.n.e.) oraz kopalnię soli z epoki brązu, w której w 1734 roku znaleziono zakonserwowane w soli zwłoki prehistorycznego górnika.<br><br>http://turystyka.wp.pl/gid,15617654,img,15617656,kat,1036543,page,2,title,10-powodow-dla-ktorych-warto-jechac-w-Alpy,galeria.html<br><br><img src="https://lh6.googleusercontent.com/proxy/f32FPWkDXFim-WfhKQ-aybvyvtSs9SXj_sB0Pffd6_UNByRNYYAVKx1frnBSj5S9WcF01HGhRJBfFbXzX3Z-i3K9833DC4MUtE6qLWp6URKx=s0-d" height="200" width="200" />]]></description>
				<styleUrl>#icon</styleUrl>
				<ExtendedData>
					<Data name='gx_media_links'>
						<value>http://www.citypictures.org/data/media/192/Hallstatt_Austria.jpg https://lh6.googleusercontent.com/proxy/f32FPWkDXFim-WfhKQ-aybvyvtSs9SXj_sB0Pffd6_UNByRNYYAVKx1frnBSj5S9WcF01HGhRJBfFbXzX3Z-i3K9833DC4MUtE6qLWp6URKx=s0-d</value>
					</Data>
				</ExtendedData>
				<Point>
					<coordinates>13.649262,47.562234,0.0</coordinates>
				</Point>
			</Placemark>
			<Placemark>
				<name>Neuschwanstein</name>
				<description><![CDATA[<img src="http://upload.wikimedia.org/wikipedia/commons/e/e8/Neuschwanstein_Castle_LOC_print_rotated.jpg" height="200" width="200" /><br><br>Alpejską krainę szczególnie pokochał książę bawarski Ludwik II i wybudował tu swój własny, magiczny świat. Ekscentryczny władca upodobał sobie baśniowe zamki i nie żałował pieniędzy z królewskiego skarbca na ich budowę. Hohenschwangau, Linderhof i najsłynniejszy Neuschwanstein można podziwiać do dziś wśród majestatycznych szczytów Alp. Malowniczo położone wśród bawarskich jezior, zachwycają bajkową architekturą.<br><br>http://turystyka.wp.pl/gid,15617654,img,15617657,kat,1036543,page,3,title,10-powodow-dla-ktorych-warto-jechac-w-Alpy,galeria.html<br><br><img src="https://lh5.googleusercontent.com/proxy/EslHLBNtEaCnhVatM-1-UTv1haQ8jJ0S0BwH6Kdg1e45UhIlzjVYa9mJNI9V7gCQXCxOHOfJjlVfwYqn5sTJ69QoGkrnKokCKykSYQ29R-rL-NT9GBSdDqh4iMYaPSkY3DIdMzT476XIQQqnfBzw=s0-d" height="200" width="200" />]]></description>
				<styleUrl>#icon</styleUrl>
				<ExtendedData>
					<Data name='gx_media_links'>
						<value>http://upload.wikimedia.org/wikipedia/commons/e/e8/Neuschwanstein_Castle_LOC_print_rotated.jpg https://lh5.googleusercontent.com/proxy/EslHLBNtEaCnhVatM-1-UTv1haQ8jJ0S0BwH6Kdg1e45UhIlzjVYa9mJNI9V7gCQXCxOHOfJjlVfwYqn5sTJ69QoGkrnKokCKykSYQ29R-rL-NT9GBSdDqh4iMYaPSkY3DIdMzT476XIQQqnfBzw=s0-d</value>
					</Data>
				</ExtendedData>
				<Point>
					<coordinates>10.7498,47.55757400000001,0.0</coordinates>
				</Point>
			</Placemark>
			<Placemark>
				<name>Aiguille du Midi</name>
				<description><![CDATA[<img src="http://www.chamonix.net/sites/default/files/Aiguille-du-Midi-cable-car-photo-199countries.jpg?itok=Oli8bAeI" height="200" width="200" /><br><br>Dach Europy - tak przyjęło się nazywać najwyższy szczyt Alp i całego Starego Kontynentu. Wymarzony cel alpinistów leży na granicy Francji i Włoch (pod masywem przebiega tunel łączący oba państwa), a jego wysokość wynosi 4810 m n.p.m. Turyści mają możliwość wjechania kolejka liniową na Aiguille du Midi (3842 m n.p.m.). Warto także odwiedzić leżące u stóp Mont Blanc kurorty, takie jak słynne Chamonix czy Albertville.<br><br>http://turystyka.wp.pl/gid,15617654,img,15617658,kat,1036543,page,4,title,10-powodow-dla-ktorych-warto-jechac-w-Alpy,galeria.html<br><br><img src="http://upload.wikimedia.org/wikipedia/commons/1/16/Aiguille_du_Midi_passerelle.JPG" height="200" width="200" /><br><br><img src="http://www.compagniedumontblanc.fr/wp-content/uploads/2011/10/Aiguille-du-Midi-Vue-passerelle.jpg" height="200" width="200" /><br><br><img src="http://www.chamonix.com/images/plan-aiguille-du-midi-montenvers.jpg" height="200" width="200" /><br><br><img src="https://lh4.googleusercontent.com/proxy/o0Khvmh52MdSUGuD6L8dtXmohPrpnPxizMUmE1Fz19MloDQbKn2cUqdXa0d7iLb3jjBYpXAGGzi6mX7y65V2zM7YBzHlyFlxCK3VIOQ-mK2nOQa5bjgjhgYQSxwAhGflAQTFPxDYg2pEH7tDk5OsYb_LoSvgHWFrFxOsKw=s0-d" height="200" width="200" /><br><br><img src="https://lh3.googleusercontent.com/proxy/tPX0dK3pvhs6oaBLZgn6FINpK0SII1yZoKjEwWlakysodw2FbOeoLfOU4zWomBpGf0hIOcR2uuXgUdQiIjVljr04g11yKpkdaEYZtPU_tfQ4IJ1FGX-p80XZayjDm6JgZYQA=s0-d" height="200" width="200" /><br><br><img src="https://lh4.googleusercontent.com/proxy/1P0aSRjyDUeqGGsjVBh0xYXilzffP94ERLA2CJI_5c946hm4I0PKqap8gExGMIcXa_f0yrc69x1xoAgl5QnsBGB3XgJGxwMHx2SGbkc0Fvsx34fZkxav-ljzbH3R2H2JzssPe9YiKCBguBLw1E5FLbBo=s0-d" height="200" width="200" /><br><br><img src="https://lh6.googleusercontent.com/proxy/bN5zuT0Ayx2CpdTK-EUrFHu6ED44KlbSVm9HWRx1edY3bloL5Uem2qhJ6ih0J5bccXls7x0a973TwxuUSDaod0iW0dvmKX7Wuxjwoaft6FfjCNrq=s0-d" height="200" width="200" />]]></description>
				<styleUrl>#icon</styleUrl>
				<ExtendedData>
					<Data name='gx_media_links'>
						<value>http://www.chamonix.net/sites/default/files/Aiguille-du-Midi-cable-car-photo-199countries.jpg?itok=Oli8bAeI http://upload.wikimedia.org/wikipedia/commons/1/16/Aiguille_du_Midi_passerelle.JPG http://www.compagniedumontblanc.fr/wp-content/uploads/2011/10/Aiguille-du-Midi-Vue-passerelle.jpg http://www.chamonix.com/images/plan-aiguille-du-midi-montenvers.jpg https://lh4.googleusercontent.com/proxy/o0Khvmh52MdSUGuD6L8dtXmohPrpnPxizMUmE1Fz19MloDQbKn2cUqdXa0d7iLb3jjBYpXAGGzi6mX7y65V2zM7YBzHlyFlxCK3VIOQ-mK2nOQa5bjgjhgYQSxwAhGflAQTFPxDYg2pEH7tDk5OsYb_LoSvgHWFrFxOsKw=s0-d https://lh3.googleusercontent.com/proxy/tPX0dK3pvhs6oaBLZgn6FINpK0SII1yZoKjEwWlakysodw2FbOeoLfOU4zWomBpGf0hIOcR2uuXgUdQiIjVljr04g11yKpkdaEYZtPU_tfQ4IJ1FGX-p80XZayjDm6JgZYQA=s0-d https://lh4.googleusercontent.com/proxy/1P0aSRjyDUeqGGsjVBh0xYXilzffP94ERLA2CJI_5c946hm4I0PKqap8gExGMIcXa_f0yrc69x1xoAgl5QnsBGB3XgJGxwMHx2SGbkc0Fvsx34fZkxav-ljzbH3R2H2JzssPe9YiKCBguBLw1E5FLbBo=s0-d https://lh6.googleusercontent.com/proxy/bN5zuT0Ayx2CpdTK-EUrFHu6ED44KlbSVm9HWRx1edY3bloL5Uem2qhJ6ih0J5bccXls7x0a973TwxuUSDaod0iW0dvmKX7Wuxjwoaft6FfjCNrq=s0-d</value>
					</Data>
				</ExtendedData>
				<Point>
					<coordinates>6.887424,45.879311,0.0</coordinates>
				</Point>
			</Placemark>
			<Placemark>
				<name>Garda</name>
				<description><![CDATA[<img src="http://www.conventionbureau.biz/sites/veronaredcarpet.com/files/excellence.jpg" height="200" width="200" /><br><br>Alpejskie jezioraAlpy to nie tylko górskie szlaki i skalne szczyty, to także piękne jeziora! Najbardziej znane to włoskie Lago di Garda, czy niemieckie Bodensee. Nad ich brzegami powstały prawdziwe kurorty, w których w sezonie roi się od turystów. Zachęcamy więc raczej do wypoczynku w mniej znanych miejscach, których idylliczny spokój będzie gwarancją udanego dnia. Można wypożyczyć rower wodny albo kajak, a na większych jeziorach także żaglówkę i popływać na ich turkusowych wodach. Dla wyjątkowych leniwców pozostaje opcja wylegiwania się na leżaku, które czekają na turystów na przybrzeżnych polanach. <br><br>http://turystyka.wp.pl/gid,15617654,img,15617659,kat,1036543,page,5,title,10-powodow-dla-ktorych-warto-jechac-w-Alpy,galeria.html<br><br><img src="https://lh6.googleusercontent.com/proxy/-JjhSmYuU0kmEvifUgXfvp2PaJW_KwfIGRmtKwiGu75D_orWxAa075wckrIPLEaJHt5sYG6snitpdjujI0QfJLRMldMkf35QFmhQ2wvufO1I9etJVEf9MtvoiQF9cgs=s0-d" height="200" width="200" />]]></description>
				<styleUrl>#icon</styleUrl>
				<ExtendedData>
					<Data name='gx_media_links'>
						<value>http://www.conventionbureau.biz/sites/veronaredcarpet.com/files/excellence.jpg https://lh6.googleusercontent.com/proxy/-JjhSmYuU0kmEvifUgXfvp2PaJW_KwfIGRmtKwiGu75D_orWxAa075wckrIPLEaJHt5sYG6snitpdjujI0QfJLRMldMkf35QFmhQ2wvufO1I9etJVEf9MtvoiQF9cgs=s0-d</value>
					</Data>
				</ExtendedData>
				<Point>
					<coordinates>10.635141,45.604938,0.0</coordinates>
				</Point>
			</Placemark>
			<Placemark>
				<name>Schlössli Wörth</name>
				<description><![CDATA[<img src="http://www.parkvilla.ch/images/rheinfall.jpg" height="200" width="200" /><br><br>Wodospady Rheinfall<br>W szwajcarskim kantonie Schaffhausen, na przełomie rzeki Ren możemy za to podziwiać największy (pod względem przepływu wody) wodospad w Europie. Na obu brzegach rzeki znajdują się platformy widokowe na 23-metrowe kaskady. Spod zamku Wörth wyruszają natomiast statki wycieczkowe, podpływające pod sam wodospad. Na środku Renu znajduje się wyjątkowa atrakcja - skała, stanowiąca naturalny punkt widokowy. Wąskie schody zaprowadzą nas na jej szczyt, z którego rozpościera się zapierających dech w piersiach widok na Rheinfall.<br><br>http://turystyka.wp.pl/gid,15617654,img,15617660,kat,1036543,page,6,title,10-powodow-dla-ktorych-warto-jechac-w-Alpy,galeria.html<br><br><img src="http://luftbilder-der-schweiz.ch/images/4/48/Rheinfall_4_20092616.jpg" height="200" width="200" /><br><br><img src="https://lh5.googleusercontent.com/proxy/i9Zo0deEMRTlayplyRT-cZYAG35rOBA0BV_k_CvO1YmdX1VXYmpFgmZqyZiVKlqaGZvhcXHL-3q0AqfAwQ=s0-d" height="200" width="200" /><br><br><img src="https://lh5.googleusercontent.com/proxy/exFCbfYH4UtRTYW2utA4kCuupBSjReQKDb6FaYAtySLip-L5O3VMfrpv5j719TDSqbfBO3L9aTgscIm6692kjbILcF8FYhVNwXwR2Dc53Jl3W3A_KuY=s0-d" height="200" width="200" />]]></description>
				<styleUrl>#icon</styleUrl>
				<ExtendedData>
					<Data name='gx_media_links'>
						<value>http://www.parkvilla.ch/images/rheinfall.jpg http://luftbilder-der-schweiz.ch/images/4/48/Rheinfall_4_20092616.jpg https://lh5.googleusercontent.com/proxy/i9Zo0deEMRTlayplyRT-cZYAG35rOBA0BV_k_CvO1YmdX1VXYmpFgmZqyZiVKlqaGZvhcXHL-3q0AqfAwQ=s0-d https://lh5.googleusercontent.com/proxy/exFCbfYH4UtRTYW2utA4kCuupBSjReQKDb6FaYAtySLip-L5O3VMfrpv5j719TDSqbfBO3L9aTgscIm6692kjbILcF8FYhVNwXwR2Dc53Jl3W3A_KuY=s0-d</value>
					</Data>
				</ExtendedData>
				<Point>
					<coordinates>8.611826,47.677898,0.0</coordinates>
				</Point>
			</Placemark>
			<Placemark>
				<name>Strada delle 52 Gallerie</name>
				<description><![CDATA[<img src="http://static.wixstatic.com/media/e36a81_613bf85445dc70265a3440d709bdcc4a.jpg_srz_608_370_85_22_0.50_1.20_0.00_jpg_srz" height="200" width="200" /><br><br>Do sprawdzenia "Droga Bohaterów"<br><br>Również tutaj, powyżej schroniska ma początek Strada delle 52 gallerie, czyli Droga 52 Galerii. Wspominam o tym, bo choć droga ta jest zamknięta dla rowerów warto zaplanować przejście tym niezwykłym szlakiem. Z pamiątkowej tablicy przy schronisku dowiemy się, że „drogę wybudowała 33 Kompania Saperów 5 Regimentu pod dowództwem kapitana Corrado Picone, w okresie od lutego do grudnia 1917r. Długość trasy wynosi 6.555m, a długość 52 tuneli to 2.280m.” Trasa miała znaczenie strategiczne, pozwalała na zaopatrzenie wojska, bez względu na porę roku, ponieważ droga Scrubbi zimą jest niedostępna. Dodatkowo poruszanie się tunelami stanowiło osłonę od obstrzału.Niezwykle ciekawy, a mało popularny wśród rowerzystów region.<br><br>http://en.wikipedia.org/wiki/Strada_delle_52_Gallerie<br><br>http://aleszprycha.pl/index.php/mtb/maratony/item/136-strada-degli-eroi-droga-bohaterow-w-malych-dolomitach-niezwykla-trasa-rowerowa<br><br><img src="http://www.skiforum.it/skiforum/upload/foto/81164-16-p1090760.jpg" height="200" width="200" /><br><br><img src="http://upload.wikimedia.org/wikipedia/commons/b/b3/Strada52gallerie_1.JPG" height="200" width="200" /><br><br><img src="http://journal.ballettonet.co/wp-content/uploads/2014/12/Strada-delle-52-Gallerie-ballettonet-edit-moda-baccaro.jpg" height="200" width="200" /><br><br><img src="http://www.pedemontanavicentina.com/general/49d707bd20e9b575cd24883e966f3b16d5.jpg" height="200" width="200" /><br><br><img src="https://lh5.googleusercontent.com/proxy/2jDSoTGYYH9AcQYRkNtrSQcm8WrTWow-Z9Vix4DSwLT-38bY3txnrffAkMCA_c1ELy1H7ULKj4IU5ZHT1aSzJl6dhDxK1yUOaErvvONVhwDwKvY1LbS7BS5nrLtlnX8PGxURiHB_7fgF-5RfULOKPPPCQPemc8d49hRGJkL05GO6MIkOjeyN=s0-d" height="200" width="200" /><br><br><img src="https://lh3.googleusercontent.com/proxy/kFmlnKC_fA6mBb7srKMXLOVW0LcURX8eA25jNuvAmLByPBWbln5DuqjAiSJcJcjXJTj5XeD3OA-Xr5gE9QAbJjtay1-9j17w1qARLBKajtup-g=s0-d" height="200" width="200" /><br><br><img src="https://lh5.googleusercontent.com/proxy/22__s9n3HLksoSktJtV7xVjRroBV7iKGmdY7ZMgOqmyZuCMmrEawQFdNBzE4LoaNmS9DFKz8ODWNCLdJZr9RXD6EnESY3KsMQbiwYKKu18i7HvDOXJbQ5YGr=s0-d" height="200" width="200" /><br><br><img src="https://lh4.googleusercontent.com/proxy/hOXX0tDVNRJ9dwBpEmqhiWdwtLfm_GoxVusSiNk-t4GTPilAaQVYNI52OfpQY79x9_KhsfUb52NqX95WFFvaJtqEuBVultRXz7GF-OyFZG87wbTCo9qmtaz8jd05RhNYV1JA9kD_wGgy8bYNWLhrYPBGBJCtyd_1p3ivARAFAi3wEazn=s0-d" height="200" width="200" /><br><br><img src="https://lh4.googleusercontent.com/proxy/k2vDKNlaNRXkw5nu0A8w-830upsHzJOCqA6QHf24rZQ4lXRfqOWQyH26w3Icpplo5txErbul6zIsnLyviMu8zNbR9gAg7qMSEQhe0yCERJEwHSfJL9LVS48GVqa7cCxW1wzP=s0-d" height="200" width="200" />]]></description>
				<styleUrl>#icon</styleUrl>
				<ExtendedData>
					<Data name='gx_media_links'>
						<value>http://static.wixstatic.com/media/e36a81_613bf85445dc70265a3440d709bdcc4a.jpg_srz_608_370_85_22_0.50_1.20_0.00_jpg_srz http://www.skiforum.it/skiforum/upload/foto/81164-16-p1090760.jpg http://upload.wikimedia.org/wikipedia/commons/b/b3/Strada52gallerie_1.JPG http://journal.ballettonet.co/wp-content/uploads/2014/12/Strada-delle-52-Gallerie-ballettonet-edit-moda-baccaro.jpg http://www.pedemontanavicentina.com/general/49d707bd20e9b575cd24883e966f3b16d5.jpg https://lh5.googleusercontent.com/proxy/2jDSoTGYYH9AcQYRkNtrSQcm8WrTWow-Z9Vix4DSwLT-38bY3txnrffAkMCA_c1ELy1H7ULKj4IU5ZHT1aSzJl6dhDxK1yUOaErvvONVhwDwKvY1LbS7BS5nrLtlnX8PGxURiHB_7fgF-5RfULOKPPPCQPemc8d49hRGJkL05GO6MIkOjeyN=s0-d https://lh3.googleusercontent.com/proxy/kFmlnKC_fA6mBb7srKMXLOVW0LcURX8eA25jNuvAmLByPBWbln5DuqjAiSJcJcjXJTj5XeD3OA-Xr5gE9QAbJjtay1-9j17w1qARLBKajtup-g=s0-d https://lh5.googleusercontent.com/proxy/22__s9n3HLksoSktJtV7xVjRroBV7iKGmdY7ZMgOqmyZuCMmrEawQFdNBzE4LoaNmS9DFKz8ODWNCLdJZr9RXD6EnESY3KsMQbiwYKKu18i7HvDOXJbQ5YGr=s0-d https://lh4.googleusercontent.com/proxy/hOXX0tDVNRJ9dwBpEmqhiWdwtLfm_GoxVusSiNk-t4GTPilAaQVYNI52OfpQY79x9_KhsfUb52NqX95WFFvaJtqEuBVultRXz7GF-OyFZG87wbTCo9qmtaz8jd05RhNYV1JA9kD_wGgy8bYNWLhrYPBGBJCtyd_1p3ivARAFAi3wEazn=s0-d https://lh4.googleusercontent.com/proxy/k2vDKNlaNRXkw5nu0A8w-830upsHzJOCqA6QHf24rZQ4lXRfqOWQyH26w3Icpplo5txErbul6zIsnLyviMu8zNbR9gAg7qMSEQhe0yCERJEwHSfJL9LVS48GVqa7cCxW1wzP=s0-d</value>
					</Data>
				</ExtendedData>
				<Point>
					<coordinates>11.228091,45.778692,0.0</coordinates>
				</Point>
			</Placemark>
			<Placemark>
				<name>Monte Baldo</name>
				<description><![CDATA[Góry i jeziora. http://www.wnieznane.pl/wlochy-polnocne,16,2,co-warto-zobaczyc,131,Jezioro-Garda-i-Monte-Baldo]]></description>
				<styleUrl>#icon</styleUrl>
				<ExtendedData>
				</ExtendedData>
				<Point>
					<coordinates>10.773052,45.567096,0.0</coordinates>
				</Point>
			</Placemark>
			<Placemark>
				<name>Trydent</name>
				<description><![CDATA[Wspaniałe trasy przyciągają bajkowym położeniem oraz bardzo dobrym oznakowaniem. Gęsta, różnorodna sieć szlaków pozwala dostosować stopień trudności wędrówki do możliwości piechurów o lepszej lub gorszej kondycji. Z każdej miejscowości można wybrać się zarówno na krótką wycieczkę w Dolomity, jak i na dłuższą górską eskapadę. Campitello di Fassa oraz Pozza di Fassa to idealne miejsca wypadowe na górskie wędrówki. Dużą popularnością cieszy się również miejscowość Ziano di Fiemme, z której można urządzać ciekawe wyprawy w rejon Val di Fiemme.]]></description>
				<styleUrl>#icon</styleUrl>
				<ExtendedData>
				</ExtendedData>
				<Point>
					<coordinates>11.117539,46.0512,0.0</coordinates>
				</Point>
			</Placemark>
			<Placemark>
				<name>Orta San Giulio</name>
				<description><![CDATA[male miasteczko nad Jeziorem Orta wpisane na listę stowarzyszenia „I borghi più belli d’Italia”, zajmującego się promocja miasteczek najbardziej interesujących pod względem historycznym i artystycznym.]]></description>
				<styleUrl>#icon</styleUrl>
				<ExtendedData>
				</ExtendedData>
				<Point>
					<coordinates>8.416219,45.796744,0.0</coordinates>
				</Point>
			</Placemark>
			<Placemark>
				<name>Villa Monastero</name>
				<description><![CDATA[http://wloskicafe.blogspot.it/2013/11/ogrody-klasztornego-paacu-nad-jeziorem.html]]></description>
				<styleUrl>#icon</styleUrl>
				<ExtendedData>
				</ExtendedData>
				<Point>
					<coordinates>9.28563,46.00919,0.0</coordinates>
				</Point>
			</Placemark>
			<Placemark>
				<name>Como</name>
				<description><![CDATA[Jezioro + opuszczone miejsce. http://turystyka.wp.pl/gid,15632567,img,15632570,kat,1036545,page,3,title,Najbardziej-tajemnicze-opuszczone-miejsca-w-Europie,galeria.html]]></description>
				<styleUrl>#icon</styleUrl>
				<ExtendedData>
				</ExtendedData>
				<Point>
					<coordinates>9.257168,46.016049,0.0</coordinates>
				</Point>
			</Placemark>
			<Placemark>
				<name>Zamek Hohenwerfen - z filmu ,,Tylko dla Orłów"</name>
				<styleUrl>#icon</styleUrl>
				<ExtendedData>
				</ExtendedData>
				<Point>
					<coordinates>13.188959,47.482932,0.0</coordinates>
				</Point>
			</Placemark>
			<Placemark>
				<name>Trift Bridge - most wiszący</name>
				<styleUrl>#icon</styleUrl>
				<ExtendedData>
				</ExtendedData>
				<Point>
					<coordinates>8.357462,46.694422,0.0</coordinates>
				</Point>
			</Placemark>
			<Placemark>
				<name>Eisriesenwelt - jaskinia lodowa</name>
				<styleUrl>#icon</styleUrl>
				<ExtendedData>
				</ExtendedData>
				<Point>
					<coordinates>13.190248,47.502958,0.0</coordinates>
				</Point>
			</Placemark>
			<Placemark>
				<name>Engadiner Kraftwerke AG - zajebista tama</name>
				<styleUrl>#icon</styleUrl>
				<ExtendedData>
				</ExtendedData>
				<Point>
					<coordinates>10.192995,46.623054,0.0</coordinates>
				</Point>
			</Placemark>
			<Placemark>
				<name>Lungernsee</name>
				<description><![CDATA[http://www.mammamija.pl/2014/06/szwajcaria.html#comment-form jaram się <3]]></description>
				<styleUrl>#icon</styleUrl>
				<ExtendedData>
				</ExtendedData>
				<Point>
					<coordinates>8.161389,46.800833000000004,0.0</coordinates>
				</Point>
			</Placemark>
			<Placemark>
				<name>Dolina Aosty</name>
				<description><![CDATA[więcej gór]]></description>
				<styleUrl>#icon</styleUrl>
				<ExtendedData>
				</ExtendedData>
				<Point>
					<coordinates>7.426187,45.738888,0.0</coordinates>
				</Point>
			</Placemark>
			<Placemark>
				<name>Monte Isola</name>
				<description><![CDATA[Zamieszkała przez 1700 osób wyspa leży w centralnej części jeziora Iseo, na wysokości miejscowości Sulzano/Sale Marasino od strony prowincji Brescia oraz Tavernola od strony prowincji Bergamo. Poza faktem, że jest największą, zamieszkałą wyspą Europy położonej na jeziorze, jest też najwyższą wyspą (600 m n.p.m.), a sama w sobie oferuje kilka atrakcji turystycznych:<br>Tradycyjne szkutnictwo i ośrodek produkujący sieci rybackie<br>Gaje oliwne<br>Santuario della Madonna della Ceriola – położone na samym szczycie wyspy XVI-wieczne sanktuarium z oryginalnymi freskami i XI-wieczną, drewnianą kaplicą. Z punktów widokowych umiejscowionych wokół świątyni rozpościera się widok na całe jezioro, Alpy oraz miejscowości ulokowane u ich podnóża<br> Santuario di San Rocco<br>Restauracje serwujące świeże ryby i lokalne przysmaki kuchni lombardzkiej<br>Festa Santa Croce (św. Krzyża) – cykliczny festyn, mający swoje początki w 1836 roku, uwieczniający koniec panującej epidemii cholery. Miejscowość przyozdabiana jest kwiatami, a goście świętują kosztując lokalne przysmaki przy akompaniamencie zespołów muzycznych (najbliższa edycja odbędzie się w sierpniu 2015 roku)<br>Ścieżki rowerowe (dookoła wyspy lub na szczyt)]]></description>
				<styleUrl>#icon</styleUrl>
				<ExtendedData>
				</ExtendedData>
				<Point>
					<coordinates>10.075321,45.71157300000001,0.0</coordinates>
				</Point>
			</Placemark>
			<Placemark>
				<name>Parco Naturale Adamello Brenta</name>
				<description><![CDATA[http://www.visittrentino.it/pl/vacanze_a_tema/active-mountain-holidays/articoli/dett/mountain-adventures-trentino-dolomites?currentItem=0;0]]></description>
				<styleUrl>#icon</styleUrl>
				<ExtendedData>
				</ExtendedData>
				<Point>
					<coordinates>10.72079,46.20724,0.0</coordinates>
				</Point>
			</Placemark>
			<Placemark>
				<name>Piękna willa w zboczu Alp</name>
				<description><![CDATA[<img src="http://bi.gazeta.pl/im/7/7505/z7505807Q,Villa-Vals--projekt-architektoniczny--SeARCH-i-CMA.jpg" height="200" width="200" /><br><br>http://www.bryla.pl/bryla/51,85298,7505777.html?i=0 NIEDALEKO od trasy głównej ]]></description>
				<styleUrl>#icon</styleUrl>
				<ExtendedData>
					<Data name='gx_media_links'>
						<value>http://bi.gazeta.pl/im/7/7505/z7505807Q,Villa-Vals--projekt-architektoniczny--SeARCH-i-CMA.jpg</value>
					</Data>
				</ExtendedData>
				<Point>
					<coordinates>9.1809071,46.620849,0.0</coordinates>
				</Point>
			</Placemark>
			<Placemark>
				<name>Te tamy też są atrakcją</name>
				<description><![CDATA[A są blisko.]]></description>
				<styleUrl>#line-000000-1</styleUrl>
				<ExtendedData>
				</ExtendedData>
				<LineString>
					<tessellate>1</tessellate>
					<coordinates>9.1207123,46.5796306,0.0 9.454422,46.4865742,0.0</coordinates>
				</LineString>
			</Placemark>
			<Placemark>
				<name>Skoda Muzeum
</name>
				<description><![CDATA[Mlada Boleslav]]></description>
				<styleUrl>#icon</styleUrl>
				<ExtendedData>
				</ExtendedData>
				<Point>
					<coordinates>14.913768800000001,50.4186908,0.0</coordinates>
				</Point>
			</Placemark>
			<Placemark>
				<name>Grossglockner</name>
				<description><![CDATA[niesamowite widoki, koszt wjazdu ok.35EUR]]></description>
				<styleUrl>#icon</styleUrl>
				<ExtendedData>
				</ExtendedData>
				<Point>
					<coordinates>12.8272247,47.1173362,0.0</coordinates>
				</Point>
			</Placemark>
			<Placemark>
				<name>Autodromo Nazionale di Monza</name>
				<description><![CDATA[Legendarny Tor Wyścigowy na którym odbywają się Grand Prix Formuły Jeden    https://pl.wikipedia.org/wiki/Autodromo_Nazionale_di_Monza  (https://pl.wikipedia.org/wiki/Autodromo_Nazionale_di_Monza) ]]></description>
				<styleUrl>#icon</styleUrl>
				<ExtendedData>
				</ExtendedData>
				<Point>
					<coordinates>9.2848,45.621799,0.0</coordinates>
				</Point>
			</Placemark>
			<Placemark>
				<name>August Horch Museum Zwickau</name>
				<description><![CDATA[Muzeum między innymi Trabanta http://nrdblog.cmosnet.eu/2014/01/warto-zobaczyc-august-horch-museum-zwickau/#axzz3iftnDb00<br>www.horch-museum.de/index.php]]></description>
				<styleUrl>#icon</styleUrl>
				<ExtendedData>
				</ExtendedData>
				<Point>
					<coordinates>12.483856,50.732782,0.0</coordinates>
				</Point>
			</Placemark>
			<Placemark>
				<name>Muzeum MZ</name>
				<description><![CDATA[Motorradmuseum Schloss Wildeck w Zschopau]]></description>
				<styleUrl>#icon</styleUrl>
				<ExtendedData>
				</ExtendedData>
				<Point>
					<coordinates>13.06865,50.745699,0.0</coordinates>
				</Point>
			</Placemark>
			<Placemark>
				<name>Autodromo Enzo e Dino Ferrari</name>
				<description><![CDATA[Słynny tor Formuły Jeden znany z feralnego weekendu Grand Prix w maju 1994 roku gdy zginęło dwóch kierowców]]></description>
				<styleUrl>#icon</styleUrl>
				<ExtendedData>
				</ExtendedData>
				<Point>
					<coordinates>11.713853,44.344636,0.0</coordinates>
				</Point>
			</Placemark>
			<Placemark>
				<name>Hungaroring</name>
				<description><![CDATA[Ciasny i kręty tor Formuły Jeden znany z bardzo ekscytujących wyścigów]]></description>
				<styleUrl>#icon</styleUrl>
				<ExtendedData>
				</ExtendedData>
				<Point>
					<coordinates>19.250611,47.581711,0.0</coordinates>
				</Point>
			</Placemark>
		<Style id='icon'>
			<IconStyle>
				<scale>0.45</scale>
				<Icon>
					<href>tosee_icon.png</href>
				</Icon>
				<hotSpot x='16' y='31' xunits='pixels' yunits='insetPixels'>
				</hotSpot>
			</IconStyle>
			<LabelStyle>
				<scale>0.0</scale>
			</LabelStyle>
		</Style>
	</Document>
</kml>